%!PS-Adobe-3.0
%%Creator: graphviz version 2.36.0 (20140111.2315)
%%Title: Call graph
%%Pages: (atend)
%%BoundingBox: (atend)
%%EndComments
save
%%BeginProlog
/DotDict 200 dict def
DotDict begin

/setupLatin1 {
mark
/EncodingVector 256 array def
 EncodingVector 0

ISOLatin1Encoding 0 255 getinterval putinterval
EncodingVector 45 /hyphen put

% Set up ISO Latin 1 character encoding
/starnetISO {
        dup dup findfont dup length dict begin
        { 1 index /FID ne { def }{ pop pop } ifelse
        } forall
        /Encoding EncodingVector def
        currentdict end definefont
} def
/Times-Roman starnetISO def
/Times-Italic starnetISO def
/Times-Bold starnetISO def
/Times-BoldItalic starnetISO def
/Helvetica starnetISO def
/Helvetica-Oblique starnetISO def
/Helvetica-Bold starnetISO def
/Helvetica-BoldOblique starnetISO def
/Courier starnetISO def
/Courier-Oblique starnetISO def
/Courier-Bold starnetISO def
/Courier-BoldOblique starnetISO def
cleartomark
} bind def

%%BeginResource: procset graphviz 0 0
/coord-font-family /Times-Roman def
/default-font-family /Times-Roman def
/coordfont coord-font-family findfont 8 scalefont def

/InvScaleFactor 1.0 def
/set_scale {
       dup 1 exch div /InvScaleFactor exch def
       scale
} bind def

% styles
/solid { [] 0 setdash } bind def
/dashed { [9 InvScaleFactor mul dup ] 0 setdash } bind def
/dotted { [1 InvScaleFactor mul 6 InvScaleFactor mul] 0 setdash } bind def
/invis {/fill {newpath} def /stroke {newpath} def /show {pop newpath} def} bind def
/bold { 2 setlinewidth } bind def
/filled { } bind def
/unfilled { } bind def
/rounded { } bind def
/diagonals { } bind def
/tapered { } bind def

% hooks for setting color 
/nodecolor { sethsbcolor } bind def
/edgecolor { sethsbcolor } bind def
/graphcolor { sethsbcolor } bind def
/nopcolor {pop pop pop} bind def

/beginpage {	% i j npages
	/npages exch def
	/j exch def
	/i exch def
	/str 10 string def
	npages 1 gt {
		gsave
			coordfont setfont
			0 0 moveto
			(\() show i str cvs show (,) show j str cvs show (\)) show
		grestore
	} if
} bind def

/set_font {
	findfont exch
	scalefont setfont
} def

% draw text fitted to its expected width
/alignedtext {			% width text
	/text exch def
	/width exch def
	gsave
		width 0 gt {
			[] 0 setdash
			text stringwidth pop width exch sub text length div 0 text ashow
		} if
	grestore
} def

/boxprim {				% xcorner ycorner xsize ysize
		4 2 roll
		moveto
		2 copy
		exch 0 rlineto
		0 exch rlineto
		pop neg 0 rlineto
		closepath
} bind def

/ellipse_path {
	/ry exch def
	/rx exch def
	/y exch def
	/x exch def
	matrix currentmatrix
	newpath
	x y translate
	rx ry scale
	0 0 1 0 360 arc
	setmatrix
} bind def

/endpage { showpage } bind def
/showpage { } def

/layercolorseq
	[	% layer color sequence - darkest to lightest
		[0 0 0]
		[.2 .8 .8]
		[.4 .8 .8]
		[.6 .8 .8]
		[.8 .8 .8]
	]
def

/layerlen layercolorseq length def

/setlayer {/maxlayer exch def /curlayer exch def
	layercolorseq curlayer 1 sub layerlen mod get
	aload pop sethsbcolor
	/nodecolor {nopcolor} def
	/edgecolor {nopcolor} def
	/graphcolor {nopcolor} def
} bind def

/onlayer { curlayer ne {invis} if } def

/onlayers {
	/myupper exch def
	/mylower exch def
	curlayer mylower lt
	curlayer myupper gt
	or
	{invis} if
} def

/curlayer 0 def

%%EndResource
%%EndProlog
%%BeginSetup
14 default-font-family set_font
1 setmiterlimit
% /arrowlength 10 def
% /arrowwidth 5 def

% make sure pdfmark is harmless for PS-interpreters other than Distiller
/pdfmark where {pop} {userdict /pdfmark /cleartomark load put} ifelse
% make '<<' and '>>' safe on PS Level 1 devices
/languagelevel where {pop languagelevel}{1} ifelse
2 lt {
    userdict (<<) cvn ([) cvn load put
    userdict (>>) cvn ([) cvn load put
} if

%%EndSetup
setupLatin1
%%Page: 1 1
%%PageBoundingBox: 36 36 229 325
%%PageOrientation: Portrait
0 0 1 beginpage
gsave
36 36 193 289 boxprim clip newpath
1 1 set_scale 0 rotate 40 40 translate
0 0 0 graphcolor
14 /Times-Roman set_font
63.5 7.8 moveto 58 (Call graph) alignedtext
% Node0x39d28c0
gsave
1 setlinewidth
0 0 0 nodecolor
newpath 28 244 moveto
28 280 lineto
118 280 lineto
118 244 lineto
closepath stroke
0 0 0 nodecolor
14 /Times-Roman set_font
36 258.3 moveto 74 (external node) alignedtext
grestore
% Node0x39d2960
gsave
1 setlinewidth
0 0 0 nodecolor
newpath 0 96 moveto
0 132 lineto
54 132 lineto
54 96 lineto
closepath stroke
0 0 0 nodecolor
14 /Times-Roman set_font
25 110.3 moveto 4 (l) alignedtext
grestore
% Node0x39d28c0->Node0x39d2960
gsave
1 setlinewidth
0 0 0 edgecolor
newpath 58.32 243.69 moveto
50.64 233.64 41.84 220.35 37 207 curveto
29.44 186.17 27.12 161.08 26.6 142.36 curveto
stroke
0 0 0 edgecolor
newpath 30.09 142.12 moveto
26.46 132.16 lineto
23.09 142.21 lineto
closepath fill
1 setlinewidth
solid
0 0 0 edgecolor
newpath 30.09 142.12 moveto
26.46 132.16 lineto
23.09 142.21 lineto
closepath stroke
grestore
% Node0x39c1cd0
gsave
1 setlinewidth
0 0 0 nodecolor
newpath 46 170 moveto
46 206 lineto
100 206 lineto
100 170 lineto
closepath stroke
0 0 0 nodecolor
14 /Times-Roman set_font
59 184.3 moveto 28 (main) alignedtext
grestore
% Node0x39d28c0->Node0x39c1cd0
gsave
1 setlinewidth
0 0 0 edgecolor
newpath 73 243.94 moveto
73 235.81 73 225.88 73 216.7 curveto
stroke
0 0 0 edgecolor
newpath 76.5 216.44 moveto
73 206.44 lineto
69.5 216.44 lineto
closepath fill
1 setlinewidth
solid
0 0 0 edgecolor
newpath 76.5 216.44 moveto
73 206.44 lineto
69.5 216.44 lineto
closepath stroke
grestore
% Node0x39c1d90
gsave
1 setlinewidth
0 0 0 nodecolor
newpath 91 96 moveto
91 132 lineto
145 132 lineto
145 96 lineto
closepath stroke
0 0 0 nodecolor
14 /Times-Roman set_font
102.5 110.3 moveto 31 (printf) alignedtext
grestore
% Node0x39d28c0->Node0x39c1d90
gsave
1 setlinewidth
0 0 0 edgecolor
newpath 87.73 243.71 moveto
95.43 233.66 104.23 220.37 109 207 curveto
116.44 186.15 118.47 161.06 118.77 142.35 curveto
stroke
0 0 0 edgecolor
newpath 122.27 142.16 moveto
118.77 132.16 lineto
115.27 142.16 lineto
closepath fill
1 setlinewidth
solid
0 0 0 edgecolor
newpath 122.27 142.16 moveto
118.77 132.16 lineto
115.27 142.16 lineto
closepath stroke
grestore
% Node0x39c1cd0->Node0x39d2960
gsave
1 setlinewidth
0 0 0 edgecolor
newpath 62.1 169.94 moveto
56.57 161.28 49.73 150.57 43.56 140.92 curveto
stroke
0 0 0 edgecolor
newpath 46.48 138.98 moveto
38.14 132.44 lineto
40.58 142.75 lineto
closepath fill
1 setlinewidth
solid
0 0 0 edgecolor
newpath 46.48 138.98 moveto
38.14 132.44 lineto
40.58 142.75 lineto
closepath stroke
grestore
% Node0x39c1cd0->Node0x39c1d90
gsave
1 setlinewidth
0 0 0 edgecolor
newpath 83.66 169.94 moveto
89.08 161.28 95.77 150.57 101.8 140.92 curveto
stroke
0 0 0 edgecolor
newpath 104.77 142.78 moveto
107.1 132.44 lineto
98.83 139.07 lineto
closepath fill
1 setlinewidth
solid
0 0 0 edgecolor
newpath 104.77 142.78 moveto
107.1 132.44 lineto
98.83 139.07 lineto
closepath stroke
grestore
% Node0x39d28f0
gsave
1 setlinewidth
0 0 0 nodecolor
118 41 67.39 18 ellipse_path stroke
0 0 0 nodecolor
14 /Times-Roman set_font
74 37.3 moveto 88 (Node0x39d28f0) alignedtext
grestore
% Node0x39c1d90->Node0x39d28f0
gsave
1 setlinewidth
0 0 0 edgecolor
newpath 118 95.81 moveto
118 87.79 118 78.05 118 69.07 curveto
stroke
0 0 0 edgecolor
newpath 121.5 69.03 moveto
118 59.03 lineto
114.5 69.03 lineto
closepath fill
1 setlinewidth
solid
0 0 0 edgecolor
newpath 121.5 69.03 moveto
118 59.03 lineto
114.5 69.03 lineto
closepath stroke
grestore
endpage
showpage
grestore
%%PageTrailer
%%EndPage: 1
%%Trailer
%%Pages: 1
%%BoundingBox: 36 36 229 325
end
restore
%%EOF
