%!PS-Adobe-3.0
%%Creator: graphviz version 2.36.0 (20140111.2315)
%%Title: Dominator tree for 'main' function
%%Pages: (atend)
%%BoundingBox: (atend)
%%EndComments
save
%%BeginProlog
/DotDict 200 dict def
DotDict begin

/setupLatin1 {
mark
/EncodingVector 256 array def
 EncodingVector 0

ISOLatin1Encoding 0 255 getinterval putinterval
EncodingVector 45 /hyphen put

% Set up ISO Latin 1 character encoding
/starnetISO {
        dup dup findfont dup length dict begin
        { 1 index /FID ne { def }{ pop pop } ifelse
        } forall
        /Encoding EncodingVector def
        currentdict end definefont
} def
/Times-Roman starnetISO def
/Times-Italic starnetISO def
/Times-Bold starnetISO def
/Times-BoldItalic starnetISO def
/Helvetica starnetISO def
/Helvetica-Oblique starnetISO def
/Helvetica-Bold starnetISO def
/Helvetica-BoldOblique starnetISO def
/Courier starnetISO def
/Courier-Oblique starnetISO def
/Courier-Bold starnetISO def
/Courier-BoldOblique starnetISO def
cleartomark
} bind def

%%BeginResource: procset graphviz 0 0
/coord-font-family /Times-Roman def
/default-font-family /Times-Roman def
/coordfont coord-font-family findfont 8 scalefont def

/InvScaleFactor 1.0 def
/set_scale {
       dup 1 exch div /InvScaleFactor exch def
       scale
} bind def

% styles
/solid { [] 0 setdash } bind def
/dashed { [9 InvScaleFactor mul dup ] 0 setdash } bind def
/dotted { [1 InvScaleFactor mul 6 InvScaleFactor mul] 0 setdash } bind def
/invis {/fill {newpath} def /stroke {newpath} def /show {pop newpath} def} bind def
/bold { 2 setlinewidth } bind def
/filled { } bind def
/unfilled { } bind def
/rounded { } bind def
/diagonals { } bind def
/tapered { } bind def

% hooks for setting color 
/nodecolor { sethsbcolor } bind def
/edgecolor { sethsbcolor } bind def
/graphcolor { sethsbcolor } bind def
/nopcolor {pop pop pop} bind def

/beginpage {	% i j npages
	/npages exch def
	/j exch def
	/i exch def
	/str 10 string def
	npages 1 gt {
		gsave
			coordfont setfont
			0 0 moveto
			(\() show i str cvs show (,) show j str cvs show (\)) show
		grestore
	} if
} bind def

/set_font {
	findfont exch
	scalefont setfont
} def

% draw text fitted to its expected width
/alignedtext {			% width text
	/text exch def
	/width exch def
	gsave
		width 0 gt {
			[] 0 setdash
			text stringwidth pop width exch sub text length div 0 text ashow
		} if
	grestore
} def

/boxprim {				% xcorner ycorner xsize ysize
		4 2 roll
		moveto
		2 copy
		exch 0 rlineto
		0 exch rlineto
		pop neg 0 rlineto
		closepath
} bind def

/ellipse_path {
	/ry exch def
	/rx exch def
	/y exch def
	/x exch def
	matrix currentmatrix
	newpath
	x y translate
	rx ry scale
	0 0 1 0 360 arc
	setmatrix
} bind def

/endpage { showpage } bind def
/showpage { } def

/layercolorseq
	[	% layer color sequence - darkest to lightest
		[0 0 0]
		[.2 .8 .8]
		[.4 .8 .8]
		[.6 .8 .8]
		[.8 .8 .8]
	]
def

/layerlen layercolorseq length def

/setlayer {/maxlayer exch def /curlayer exch def
	layercolorseq curlayer 1 sub layerlen mod get
	aload pop sethsbcolor
	/nodecolor {nopcolor} def
	/edgecolor {nopcolor} def
	/graphcolor {nopcolor} def
} bind def

/onlayer { curlayer ne {invis} if } def

/onlayers {
	/myupper exch def
	/mylower exch def
	curlayer mylower lt
	curlayer myupper gt
	or
	{invis} if
} def

/curlayer 0 def

%%EndResource
%%EndProlog
%%BeginSetup
14 default-font-family set_font
1 setmiterlimit
% /arrowlength 10 def
% /arrowwidth 5 def

% make sure pdfmark is harmless for PS-interpreters other than Distiller
/pdfmark where {pop} {userdict /pdfmark /cleartomark load put} ifelse
% make '<<' and '>>' safe on PS Level 1 devices
/languagelevel where {pop languagelevel}{1} ifelse
2 lt {
    userdict (<<) cvn ([) cvn load put
    userdict (>>) cvn ([) cvn load put
} if

%%EndSetup
setupLatin1
%%Page: 1 1
%%PageBoundingBox: 36 36 691 667
%%PageOrientation: Portrait
0 0 1 beginpage
gsave
36 36 655 631 boxprim clip newpath
1 1 set_scale 0 rotate 40 40 translate
0 0 0 graphcolor
14 /Times-Roman set_font
229.5 7.8 moveto 188 (Dominator tree for 'main' function) alignedtext
% Node0x2a696b0
gsave
1 setlinewidth
0 0 0 nodecolor
newpath 115 464 moveto
115 622 lineto
425 622 lineto
425 464 lineto
closepath stroke
0 0 0 nodecolor
14 /Times-Roman set_font
123 606.8 moveto 23 (%0:) alignedtext
0 0 0 nodecolor
14 /Times-Roman set_font
123 591.8 moveto 137 ( %1 = alloca i32, align 4) alignedtext
0 0 0 nodecolor
14 /Times-Roman set_font
123 576.8 moveto 134 ( %i = alloca i32, align 4) alignedtext
0 0 0 nodecolor
14 /Times-Roman set_font
123 561.8 moveto 142 ( %f = alloca float, align 4) alignedtext
0 0 0 nodecolor
14 /Times-Roman set_font
123 546.8 moveto 145 ( %g = alloca float, align 4) alignedtext
0 0 0 nodecolor
14 /Times-Roman set_font
123 531.8 moveto 116 ( store i32 0, i32* %1) alignedtext
0 0 0 nodecolor
14 /Times-Roman set_font
123 516.8 moveto 246 ( store float 1.000000e+01, float* %f, align 4) alignedtext
0 0 0 nodecolor
14 /Times-Roman set_font
123 501.8 moveto 294 ( store float 0x400A666660000000, float* %g, align 4) alignedtext
0 0 0 nodecolor
14 /Times-Roman set_font
123 486.8 moveto 158 ( store i32 0, i32* %i, align 4) alignedtext
0 0 0 nodecolor
14 /Times-Roman set_font
123 471.8 moveto 68 ( br label %2) alignedtext
grestore
% Node0x2a65d40
gsave
1 setlinewidth
0 0 0 nodecolor
newpath 176 342 moveto
176 426 lineto
364 426 lineto
364 342 lineto
closepath stroke
0 0 0 nodecolor
14 /Times-Roman set_font
184 410.8 moveto 23 (%2:) alignedtext
0 0 0 nodecolor
14 /Times-Roman set_font
184 379.8 moveto 154 ( %3 = load i32* %i, align 4) alignedtext
0 0 0 nodecolor
14 /Times-Roman set_font
184 364.8 moveto 148 ( %4 = icmp slt i32 %3, 10) alignedtext
0 0 0 nodecolor
14 /Times-Roman set_font
184 349.8 moveto 172 ( br i1 %4, label %5, label %14) alignedtext
grestore
% Node0x2a696b0->Node0x2a65d40
gsave
1 setlinewidth
0 0 0 edgecolor
newpath 270 463.96 moveto
270 454.56 270 445.14 270 436.26 curveto
stroke
0 0 0 edgecolor
newpath 273.5 436.11 moveto
270 426.11 lineto
266.5 436.11 lineto
closepath fill
1 setlinewidth
solid
0 0 0 edgecolor
newpath 273.5 436.11 moveto
270 426.11 lineto
266.5 436.11 lineto
closepath stroke
grestore
% Node0x2a65d80
gsave
1 setlinewidth
0 0 0 nodecolor
newpath -.5 160 moveto
-.5 304 lineto
208.5 304 lineto
208.5 160 lineto
closepath stroke
0 0 0 nodecolor
14 /Times-Roman set_font
7.5 288.8 moveto 23 (%5:) alignedtext
0 0 0 nodecolor
14 /Times-Roman set_font
7.5 257.8 moveto 165 ( %6 = load float* %g, align 4) alignedtext
0 0 0 nodecolor
14 /Times-Roman set_font
7.5 242.8 moveto 163 ( %7 = load float* %f, align 4) alignedtext
0 0 0 nodecolor
14 /Times-Roman set_font
7.5 227.8 moveto 142 ( %8 = fmul float %6, %7) alignedtext
0 0 0 nodecolor
14 /Times-Roman set_font
7.5 212.8 moveto 163 ( %9 = load float* %f, align 4) alignedtext
0 0 0 nodecolor
14 /Times-Roman set_font
7.5 197.8 moveto 147 ( %10 = fadd float %9, %8) alignedtext
0 0 0 nodecolor
14 /Times-Roman set_font
7.5 182.8 moveto 193 ( store float %10, float* %f, align 4) alignedtext
0 0 0 nodecolor
14 /Times-Roman set_font
7.5 167.8 moveto 75 ( br label %11) alignedtext
grestore
% Node0x2a65d40->Node0x2a65d80
gsave
1 setlinewidth
0 0 0 edgecolor
newpath 224.2 341.61 moveto
213.65 332.08 202.09 321.64 190.44 311.11 curveto
stroke
0 0 0 edgecolor
newpath 192.55 308.3 moveto
182.78 304.19 lineto
187.86 313.49 lineto
closepath fill
1 setlinewidth
solid
0 0 0 edgecolor
newpath 192.55 308.3 moveto
182.78 304.19 lineto
187.86 313.49 lineto
closepath stroke
grestore
% Node0x2a65e00
gsave
1 setlinewidth
0 0 0 nodecolor
newpath 227 160 moveto
227 304 lineto
647 304 lineto
647 160 lineto
closepath stroke
0 0 0 nodecolor
14 /Times-Roman set_font
235 288.8 moveto 30 (%14:) alignedtext
0 0 0 nodecolor
14 /Times-Roman set_font
235 257.8 moveto 161 ( %15 = load i32* %i, align 4) alignedtext
0 0 0 nodecolor
14 /Times-Roman set_font
235 242.8 moveto 127 ( call void @l\(i32 %15\)) alignedtext
0 0 0 nodecolor
14 /Times-Roman set_font
235 227.8 moveto 169 ( %16 = load float* %f, align 4) alignedtext
0 0 0 nodecolor
14 /Times-Roman set_font
235 212.8 moveto 186 ( %17 = fpext float %16 to double) alignedtext
0 0 0 nodecolor
14 /Times-Roman set_font
235 197.8 moveto 404 ( %18 = call i32 \(i8*, ...\)* @printf\(i8* getelementptr inbounds \([11 x i8]*) alignedtext
0 0 0 nodecolor
14 /Times-Roman set_font
235 182.8 moveto 199 (... @.str, i32 0, i32 0\), double %17\)) alignedtext
0 0 0 nodecolor
14 /Times-Roman set_font
235 167.8 moveto 50 ( ret i32 0) alignedtext
grestore
% Node0x2a65d40->Node0x2a65e00
gsave
1 setlinewidth
0 0 0 edgecolor
newpath 316.08 341.61 moveto
326.69 332.08 338.32 321.64 350.04 311.11 curveto
stroke
0 0 0 edgecolor
newpath 352.64 313.48 moveto
357.74 304.19 lineto
347.96 308.27 lineto
closepath fill
1 setlinewidth
solid
0 0 0 edgecolor
newpath 352.64 313.48 moveto
357.74 304.19 lineto
347.96 308.27 lineto
closepath stroke
grestore
% Node0x2a65dc0
gsave
1 setlinewidth
0 0 0 nodecolor
newpath 7.5 23.5 moveto
7.5 122.5 lineto
200.5 122.5 lineto
200.5 23.5 lineto
closepath stroke
0 0 0 nodecolor
14 /Times-Roman set_font
15.5 107.3 moveto 30 (%11:) alignedtext
0 0 0 nodecolor
14 /Times-Roman set_font
15.5 76.3 moveto 161 ( %12 = load i32* %i, align 4) alignedtext
0 0 0 nodecolor
14 /Times-Roman set_font
15.5 61.3 moveto 155 ( %13 = add nsw i32 %12, 1) alignedtext
0 0 0 nodecolor
14 /Times-Roman set_font
15.5 46.3 moveto 177 ( store i32 %13, i32* %i, align 4) alignedtext
0 0 0 nodecolor
14 /Times-Roman set_font
15.5 31.3 moveto 68 ( br label %2) alignedtext
grestore
% Node0x2a65d80->Node0x2a65dc0
gsave
1 setlinewidth
0 0 0 edgecolor
newpath 104 159.85 moveto
104 150.87 104 141.76 104 133 curveto
stroke
0 0 0 edgecolor
newpath 107.5 132.9 moveto
104 122.9 lineto
100.5 132.9 lineto
closepath fill
1 setlinewidth
solid
0 0 0 edgecolor
newpath 107.5 132.9 moveto
104 122.9 lineto
100.5 132.9 lineto
closepath stroke
grestore
endpage
showpage
grestore
%%PageTrailer
%%EndPage: 1
%%Trailer
%%Pages: 1
%%BoundingBox: 36 36 691 667
end
restore
%%EOF
