%!PS-Adobe-3.0
%%Creator: graphviz version 2.36.0 (20140111.2315)
%%Title: CFG for 'main' function
%%Pages: (atend)
%%BoundingBox: (atend)
%%EndComments
save
%%BeginProlog
/DotDict 200 dict def
DotDict begin

/setupLatin1 {
mark
/EncodingVector 256 array def
 EncodingVector 0

ISOLatin1Encoding 0 255 getinterval putinterval
EncodingVector 45 /hyphen put

% Set up ISO Latin 1 character encoding
/starnetISO {
        dup dup findfont dup length dict begin
        { 1 index /FID ne { def }{ pop pop } ifelse
        } forall
        /Encoding EncodingVector def
        currentdict end definefont
} def
/Times-Roman starnetISO def
/Times-Italic starnetISO def
/Times-Bold starnetISO def
/Times-BoldItalic starnetISO def
/Helvetica starnetISO def
/Helvetica-Oblique starnetISO def
/Helvetica-Bold starnetISO def
/Helvetica-BoldOblique starnetISO def
/Courier starnetISO def
/Courier-Oblique starnetISO def
/Courier-Bold starnetISO def
/Courier-BoldOblique starnetISO def
cleartomark
} bind def

%%BeginResource: procset graphviz 0 0
/coord-font-family /Times-Roman def
/default-font-family /Times-Roman def
/coordfont coord-font-family findfont 8 scalefont def

/InvScaleFactor 1.0 def
/set_scale {
       dup 1 exch div /InvScaleFactor exch def
       scale
} bind def

% styles
/solid { [] 0 setdash } bind def
/dashed { [9 InvScaleFactor mul dup ] 0 setdash } bind def
/dotted { [1 InvScaleFactor mul 6 InvScaleFactor mul] 0 setdash } bind def
/invis {/fill {newpath} def /stroke {newpath} def /show {pop newpath} def} bind def
/bold { 2 setlinewidth } bind def
/filled { } bind def
/unfilled { } bind def
/rounded { } bind def
/diagonals { } bind def
/tapered { } bind def

% hooks for setting color 
/nodecolor { sethsbcolor } bind def
/edgecolor { sethsbcolor } bind def
/graphcolor { sethsbcolor } bind def
/nopcolor {pop pop pop} bind def

/beginpage {	% i j npages
	/npages exch def
	/j exch def
	/i exch def
	/str 10 string def
	npages 1 gt {
		gsave
			coordfont setfont
			0 0 moveto
			(\() show i str cvs show (,) show j str cvs show (\)) show
		grestore
	} if
} bind def

/set_font {
	findfont exch
	scalefont setfont
} def

% draw text fitted to its expected width
/alignedtext {			% width text
	/text exch def
	/width exch def
	gsave
		width 0 gt {
			[] 0 setdash
			text stringwidth pop width exch sub text length div 0 text ashow
		} if
	grestore
} def

/boxprim {				% xcorner ycorner xsize ysize
		4 2 roll
		moveto
		2 copy
		exch 0 rlineto
		0 exch rlineto
		pop neg 0 rlineto
		closepath
} bind def

/ellipse_path {
	/ry exch def
	/rx exch def
	/y exch def
	/x exch def
	matrix currentmatrix
	newpath
	x y translate
	rx ry scale
	0 0 1 0 360 arc
	setmatrix
} bind def

/endpage { showpage } bind def
/showpage { } def

/layercolorseq
	[	% layer color sequence - darkest to lightest
		[0 0 0]
		[.2 .8 .8]
		[.4 .8 .8]
		[.6 .8 .8]
		[.8 .8 .8]
	]
def

/layerlen layercolorseq length def

/setlayer {/maxlayer exch def /curlayer exch def
	layercolorseq curlayer 1 sub layerlen mod get
	aload pop sethsbcolor
	/nodecolor {nopcolor} def
	/edgecolor {nopcolor} def
	/graphcolor {nopcolor} def
} bind def

/onlayer { curlayer ne {invis} if } def

/onlayers {
	/myupper exch def
	/mylower exch def
	curlayer mylower lt
	curlayer myupper gt
	or
	{invis} if
} def

/curlayer 0 def

%%EndResource
%%EndProlog
%%BeginSetup
14 default-font-family set_font
1 setmiterlimit
% /arrowlength 10 def
% /arrowwidth 5 def

% make sure pdfmark is harmless for PS-interpreters other than Distiller
/pdfmark where {pop} {userdict /pdfmark /cleartomark load put} ifelse
% make '<<' and '>>' safe on PS Level 1 devices
/languagelevel where {pop languagelevel}{1} ifelse
2 lt {
    userdict (<<) cvn ([) cvn load put
    userdict (>>) cvn ([) cvn load put
} if

%%EndSetup
setupLatin1
%%Page: 1 1
%%PageBoundingBox: 36 36 729 689
%%PageOrientation: Portrait
0 0 1 beginpage
gsave
36 36 693 653 boxprim clip newpath
1 1 set_scale 0 rotate 40 40 translate
0 0 0 graphcolor
14 /Times-Roman set_font
277 7.8 moveto 131 (CFG for 'main' function) alignedtext
% Node0x1f57c90
gsave
1 setlinewidth
0 0 0 nodecolor
newpath 82 486 moveto
82 644 lineto
392 644 lineto
392 486 lineto
closepath stroke
0 0 0 nodecolor
14 /Times-Roman set_font
90 628.8 moveto 23 (%0:) alignedtext
0 0 0 nodecolor
14 /Times-Roman set_font
90 613.8 moveto 137 ( %1 = alloca i32, align 4) alignedtext
0 0 0 nodecolor
14 /Times-Roman set_font
90 598.8 moveto 134 ( %i = alloca i32, align 4) alignedtext
0 0 0 nodecolor
14 /Times-Roman set_font
90 583.8 moveto 142 ( %f = alloca float, align 4) alignedtext
0 0 0 nodecolor
14 /Times-Roman set_font
90 568.8 moveto 145 ( %g = alloca float, align 4) alignedtext
0 0 0 nodecolor
14 /Times-Roman set_font
90 553.8 moveto 116 ( store i32 0, i32* %1) alignedtext
0 0 0 nodecolor
14 /Times-Roman set_font
90 538.8 moveto 246 ( store float 1.000000e+01, float* %f, align 4) alignedtext
0 0 0 nodecolor
14 /Times-Roman set_font
90 523.8 moveto 294 ( store float 0x400A666660000000, float* %g, align 4) alignedtext
0 0 0 nodecolor
14 /Times-Roman set_font
90 508.8 moveto 158 ( store i32 0, i32* %i, align 4) alignedtext
0 0 0 nodecolor
14 /Times-Roman set_font
90 493.8 moveto 68 ( br label %2) alignedtext
grestore
% Node0x1f57cf0
gsave
1 setlinewidth
0 0 0 nodecolor
newpath 143 341.5 moveto
143 448.5 lineto
331 448.5 lineto
331 341.5 lineto
closepath stroke
0 0 0 nodecolor
14 /Times-Roman set_font
151 433.3 moveto 23 (%2:) alignedtext
0 0 0 nodecolor
14 /Times-Roman set_font
151 402.3 moveto 154 ( %3 = load i32* %i, align 4) alignedtext
0 0 0 nodecolor
14 /Times-Roman set_font
151 387.3 moveto 148 ( %4 = icmp slt i32 %3, 10) alignedtext
0 0 0 nodecolor
14 /Times-Roman set_font
151 372.3 moveto 172 ( br i1 %4, label %5, label %14) alignedtext
1 setlinewidth
0 0 0 nodecolor
newpath 143 364.5 moveto
331 364.5 lineto
stroke
0 0 0 nodecolor
14 /Times-Roman set_font
185.5 349.3 moveto 9 (T) alignedtext
1 setlinewidth
0 0 0 nodecolor
newpath 237 341.5 moveto
237 364.5 lineto
stroke
0 0 0 nodecolor
14 /Times-Roman set_font
280 349.3 moveto 8 (F) alignedtext
grestore
% Node0x1f57c90->Node0x1f57cf0
gsave
1 setlinewidth
0 0 0 edgecolor
newpath 237 485.9 moveto
237 476.91 237 467.83 237 459.07 curveto
stroke
0 0 0 edgecolor
newpath 240.5 458.96 moveto
237 448.96 lineto
233.5 458.96 lineto
closepath fill
1 setlinewidth
solid
0 0 0 edgecolor
newpath 240.5 458.96 moveto
237 448.96 lineto
233.5 458.96 lineto
closepath stroke
grestore
% Node0x1f57d50
gsave
1 setlinewidth
0 0 0 nodecolor
newpath -.5 160 moveto
-.5 304 lineto
208.5 304 lineto
208.5 160 lineto
closepath stroke
0 0 0 nodecolor
14 /Times-Roman set_font
7.5 288.8 moveto 23 (%5:) alignedtext
0 0 0 nodecolor
14 /Times-Roman set_font
7.5 257.8 moveto 165 ( %6 = load float* %g, align 4) alignedtext
0 0 0 nodecolor
14 /Times-Roman set_font
7.5 242.8 moveto 163 ( %7 = load float* %f, align 4) alignedtext
0 0 0 nodecolor
14 /Times-Roman set_font
7.5 227.8 moveto 142 ( %8 = fmul float %6, %7) alignedtext
0 0 0 nodecolor
14 /Times-Roman set_font
7.5 212.8 moveto 163 ( %9 = load float* %f, align 4) alignedtext
0 0 0 nodecolor
14 /Times-Roman set_font
7.5 197.8 moveto 147 ( %10 = fadd float %9, %8) alignedtext
0 0 0 nodecolor
14 /Times-Roman set_font
7.5 182.8 moveto 193 ( store float %10, float* %f, align 4) alignedtext
0 0 0 nodecolor
14 /Times-Roman set_font
7.5 167.8 moveto 75 ( br label %11) alignedtext
grestore
% Node0x1f57cf0->Node0x1f57d50
gsave
1 setlinewidth
0 0 0 edgecolor
newpath 142 353 moveto
120.78 353 110.19 335.73 105.22 314.29 curveto
stroke
0 0 0 edgecolor
newpath 108.61 313.37 moveto
103.31 304.19 lineto
101.73 314.67 lineto
closepath fill
1 setlinewidth
solid
0 0 0 edgecolor
newpath 108.61 313.37 moveto
103.31 304.19 lineto
101.73 314.67 lineto
closepath stroke
grestore
% Node0x1f57e10
gsave
1 setlinewidth
0 0 0 nodecolor
newpath 265 160 moveto
265 304 lineto
685 304 lineto
685 160 lineto
closepath stroke
0 0 0 nodecolor
14 /Times-Roman set_font
273 288.8 moveto 30 (%14:) alignedtext
0 0 0 nodecolor
14 /Times-Roman set_font
273 257.8 moveto 161 ( %15 = load i32* %i, align 4) alignedtext
0 0 0 nodecolor
14 /Times-Roman set_font
273 242.8 moveto 127 ( call void @l\(i32 %15\)) alignedtext
0 0 0 nodecolor
14 /Times-Roman set_font
273 227.8 moveto 169 ( %16 = load float* %f, align 4) alignedtext
0 0 0 nodecolor
14 /Times-Roman set_font
273 212.8 moveto 186 ( %17 = fpext float %16 to double) alignedtext
0 0 0 nodecolor
14 /Times-Roman set_font
273 197.8 moveto 404 ( %18 = call i32 \(i8*, ...\)* @printf\(i8* getelementptr inbounds \([11 x i8]*) alignedtext
0 0 0 nodecolor
14 /Times-Roman set_font
273 182.8 moveto 199 (... @.str, i32 0, i32 0\), double %17\)) alignedtext
0 0 0 nodecolor
14 /Times-Roman set_font
273 167.8 moveto 50 ( ret i32 0) alignedtext
grestore
% Node0x1f57cf0->Node0x1f57e10
gsave
1 setlinewidth
0 0 0 edgecolor
newpath 332 353 moveto
364.9 353 394.19 334.14 417.56 311.37 curveto
stroke
0 0 0 edgecolor
newpath 420.1 313.77 moveto
424.62 304.19 lineto
415.11 308.86 lineto
closepath fill
1 setlinewidth
solid
0 0 0 edgecolor
newpath 420.1 313.77 moveto
424.62 304.19 lineto
415.11 308.86 lineto
closepath stroke
grestore
% Node0x1f57db0
gsave
1 setlinewidth
0 0 0 nodecolor
newpath 73.5 23.5 moveto
73.5 122.5 lineto
266.5 122.5 lineto
266.5 23.5 lineto
closepath stroke
0 0 0 nodecolor
14 /Times-Roman set_font
81.5 107.3 moveto 30 (%11:) alignedtext
0 0 0 nodecolor
14 /Times-Roman set_font
81.5 76.3 moveto 161 ( %12 = load i32* %i, align 4) alignedtext
0 0 0 nodecolor
14 /Times-Roman set_font
81.5 61.3 moveto 155 ( %13 = add nsw i32 %12, 1) alignedtext
0 0 0 nodecolor
14 /Times-Roman set_font
81.5 46.3 moveto 177 ( store i32 %13, i32* %i, align 4) alignedtext
0 0 0 nodecolor
14 /Times-Roman set_font
81.5 31.3 moveto 68 ( br label %2) alignedtext
grestore
% Node0x1f57d50->Node0x1f57db0
gsave
1 setlinewidth
0 0 0 edgecolor
newpath 133.91 159.85 moveto
137.81 150.58 141.76 141.17 145.56 132.14 curveto
stroke
0 0 0 edgecolor
newpath 148.8 133.47 moveto
149.45 122.9 lineto
142.34 130.76 lineto
closepath fill
1 setlinewidth
solid
0 0 0 edgecolor
newpath 148.8 133.47 moveto
149.45 122.9 lineto
142.34 130.76 lineto
closepath stroke
grestore
% Node0x1f57db0->Node0x1f57cf0
gsave
1 setlinewidth
0 0 0 edgecolor
newpath 201.51 122.79 moveto
207.62 134.27 213.27 146.74 217 159 curveto
234.19 215.57 238.35 283.1 238.71 331.22 curveto
stroke
0 0 0 edgecolor
newpath 235.21 331.49 moveto
238.73 341.48 lineto
242.21 331.48 lineto
closepath fill
1 setlinewidth
solid
0 0 0 edgecolor
newpath 235.21 331.49 moveto
238.73 341.48 lineto
242.21 331.48 lineto
closepath stroke
grestore
endpage
showpage
grestore
%%PageTrailer
%%EndPage: 1
%%Trailer
%%Pages: 1
%%BoundingBox: 36 36 729 689
end
restore
%%EOF
