%!PS-Adobe-3.0
%%Creator: graphviz version 2.36.0 (20140111.2315)
%%Title: Call graph
%%Pages: (atend)
%%BoundingBox: (atend)
%%EndComments
save
%%BeginProlog
/DotDict 200 dict def
DotDict begin

/setupLatin1 {
mark
/EncodingVector 256 array def
 EncodingVector 0

ISOLatin1Encoding 0 255 getinterval putinterval
EncodingVector 45 /hyphen put

% Set up ISO Latin 1 character encoding
/starnetISO {
        dup dup findfont dup length dict begin
        { 1 index /FID ne { def }{ pop pop } ifelse
        } forall
        /Encoding EncodingVector def
        currentdict end definefont
} def
/Times-Roman starnetISO def
/Times-Italic starnetISO def
/Times-Bold starnetISO def
/Times-BoldItalic starnetISO def
/Helvetica starnetISO def
/Helvetica-Oblique starnetISO def
/Helvetica-Bold starnetISO def
/Helvetica-BoldOblique starnetISO def
/Courier starnetISO def
/Courier-Oblique starnetISO def
/Courier-Bold starnetISO def
/Courier-BoldOblique starnetISO def
cleartomark
} bind def

%%BeginResource: procset graphviz 0 0
/coord-font-family /Times-Roman def
/default-font-family /Times-Roman def
/coordfont coord-font-family findfont 8 scalefont def

/InvScaleFactor 1.0 def
/set_scale {
       dup 1 exch div /InvScaleFactor exch def
       scale
} bind def

% styles
/solid { [] 0 setdash } bind def
/dashed { [9 InvScaleFactor mul dup ] 0 setdash } bind def
/dotted { [1 InvScaleFactor mul 6 InvScaleFactor mul] 0 setdash } bind def
/invis {/fill {newpath} def /stroke {newpath} def /show {pop newpath} def} bind def
/bold { 2 setlinewidth } bind def
/filled { } bind def
/unfilled { } bind def
/rounded { } bind def
/diagonals { } bind def
/tapered { } bind def

% hooks for setting color 
/nodecolor { sethsbcolor } bind def
/edgecolor { sethsbcolor } bind def
/graphcolor { sethsbcolor } bind def
/nopcolor {pop pop pop} bind def

/beginpage {	% i j npages
	/npages exch def
	/j exch def
	/i exch def
	/str 10 string def
	npages 1 gt {
		gsave
			coordfont setfont
			0 0 moveto
			(\() show i str cvs show (,) show j str cvs show (\)) show
		grestore
	} if
} bind def

/set_font {
	findfont exch
	scalefont setfont
} def

% draw text fitted to its expected width
/alignedtext {			% width text
	/text exch def
	/width exch def
	gsave
		width 0 gt {
			[] 0 setdash
			text stringwidth pop width exch sub text length div 0 text ashow
		} if
	grestore
} def

/boxprim {				% xcorner ycorner xsize ysize
		4 2 roll
		moveto
		2 copy
		exch 0 rlineto
		0 exch rlineto
		pop neg 0 rlineto
		closepath
} bind def

/ellipse_path {
	/ry exch def
	/rx exch def
	/y exch def
	/x exch def
	matrix currentmatrix
	newpath
	x y translate
	rx ry scale
	0 0 1 0 360 arc
	setmatrix
} bind def

/endpage { showpage } bind def
/showpage { } def

/layercolorseq
	[	% layer color sequence - darkest to lightest
		[0 0 0]
		[.2 .8 .8]
		[.4 .8 .8]
		[.6 .8 .8]
		[.8 .8 .8]
	]
def

/layerlen layercolorseq length def

/setlayer {/maxlayer exch def /curlayer exch def
	layercolorseq curlayer 1 sub layerlen mod get
	aload pop sethsbcolor
	/nodecolor {nopcolor} def
	/edgecolor {nopcolor} def
	/graphcolor {nopcolor} def
} bind def

/onlayer { curlayer ne {invis} if } def

/onlayers {
	/myupper exch def
	/mylower exch def
	curlayer mylower lt
	curlayer myupper gt
	or
	{invis} if
} def

/curlayer 0 def

%%EndResource
%%EndProlog
%%BeginSetup
14 default-font-family set_font
1 setmiterlimit
% /arrowlength 10 def
% /arrowwidth 5 def

% make sure pdfmark is harmless for PS-interpreters other than Distiller
/pdfmark where {pop} {userdict /pdfmark /cleartomark load put} ifelse
% make '<<' and '>>' safe on PS Level 1 devices
/languagelevel where {pop languagelevel}{1} ifelse
2 lt {
    userdict (<<) cvn ([) cvn load put
    userdict (>>) cvn ([) cvn load put
} if

%%EndSetup
setupLatin1
%%Page: 1 1
%%PageBoundingBox: 36 36 191 401
%%PageOrientation: Portrait
0 0 1 beginpage
gsave
36 36 155 365 boxprim clip newpath
1 1 set_scale 0 rotate 40 40 translate
0 0 0 graphcolor
14 /Times-Roman set_font
44.62 7.8 moveto 58 (Call graph) alignedtext
% Node0x395ff10
gsave
1 setlinewidth
0 0 0 nodecolor
newpath 1.25 320 moveto
1.25 356 lineto
91.25 356 lineto
91.25 320 lineto
closepath stroke
0 0 0 nodecolor
14 /Times-Roman set_font
9.25 334.3 moveto 74 (external node) alignedtext
grestore
% Node0x395ffb0
gsave
1 setlinewidth
0 0 0 nodecolor
newpath 17.25 98 moveto
17.25 134 lineto
71.25 134 lineto
71.25 98 lineto
closepath stroke
0 0 0 nodecolor
14 /Times-Roman set_font
41.75 112.3 moveto 5 (f) alignedtext
grestore
% Node0x395ff10->Node0x395ffb0
gsave
1 setlinewidth
0 0 0 edgecolor
newpath 46.09 319.74 moveto
45.75 281.66 44.91 190.23 44.5 144.3 curveto
stroke
0 0 0 edgecolor
newpath 48 144.15 moveto
44.4 134.18 lineto
41 144.21 lineto
closepath fill
1 setlinewidth
solid
0 0 0 edgecolor
newpath 48 144.15 moveto
44.4 134.18 lineto
41 144.21 lineto
closepath stroke
grestore
% Node0x39761a0
gsave
1 setlinewidth
0 0 0 nodecolor
newpath 17.25 24 moveto
17.25 60 lineto
71.25 60 lineto
71.25 24 lineto
closepath stroke
0 0 0 nodecolor
14 /Times-Roman set_font
40.75 38.3 moveto 7 (g) alignedtext
grestore
% Node0x395ff10->Node0x39761a0
gsave
1 setlinewidth
0 0 0 edgecolor
newpath 38.34 319.76 moveto
21.12 279.82 -16.32 178.15 8.25 97 curveto
11.33 86.81 17.05 76.78 23.03 68.19 curveto
stroke
0 0 0 edgecolor
newpath 25.87 70.24 moveto
29.01 60.12 lineto
20.24 66.07 lineto
closepath fill
1 setlinewidth
solid
0 0 0 edgecolor
newpath 25.87 70.24 moveto
29.01 60.12 lineto
20.24 66.07 lineto
closepath stroke
grestore
% Node0x3976280
gsave
1 setlinewidth
0 0 0 nodecolor
newpath 55.25 172 moveto
55.25 208 lineto
109.25 208 lineto
109.25 172 lineto
closepath stroke
0 0 0 nodecolor
14 /Times-Roman set_font
78.75 186.3 moveto 7 (h) alignedtext
grestore
% Node0x395ff10->Node0x3976280
gsave
1 setlinewidth
0 0 0 edgecolor
newpath 50.45 319.97 moveto
56.62 294.94 68.2 247.96 75.55 218.15 curveto
stroke
0 0 0 edgecolor
newpath 78.97 218.92 moveto
77.96 208.38 lineto
72.17 217.25 lineto
closepath fill
1 setlinewidth
solid
0 0 0 edgecolor
newpath 78.97 218.92 moveto
77.96 208.38 lineto
72.17 217.25 lineto
closepath stroke
grestore
% Node0x3976340
gsave
1 setlinewidth
0 0 0 nodecolor
newpath 93.25 246 moveto
93.25 282 lineto
147.25 282 lineto
147.25 246 lineto
closepath stroke
0 0 0 nodecolor
14 /Times-Roman set_font
106.25 260.3 moveto 28 (main) alignedtext
grestore
% Node0x395ff10->Node0x3976340
gsave
1 setlinewidth
0 0 0 edgecolor
newpath 63.79 319.94 moveto
73.21 310.77 84.99 299.31 95.34 289.23 curveto
stroke
0 0 0 edgecolor
newpath 97.85 291.67 moveto
102.58 282.19 lineto
92.97 286.66 lineto
closepath fill
1 setlinewidth
solid
0 0 0 edgecolor
newpath 97.85 291.67 moveto
102.58 282.19 lineto
92.97 286.66 lineto
closepath stroke
grestore
% Node0x395ffb0->Node0x39761a0
gsave
1 setlinewidth
0 0 0 edgecolor
newpath 38.41 97.94 moveto
37.55 89.81 37.3 79.88 37.66 70.7 curveto
stroke
0 0 0 edgecolor
newpath 41.17 70.66 moveto
38.37 60.44 lineto
34.19 70.18 lineto
closepath fill
1 setlinewidth
solid
0 0 0 edgecolor
newpath 41.17 70.66 moveto
38.37 60.44 lineto
34.19 70.18 lineto
closepath stroke
grestore
% Node0x39761a0->Node0x395ffb0
gsave
1 setlinewidth
0 0 0 edgecolor
newpath 50.13 60.44 moveto
50.97 68.63 51.2 78.57 50.82 87.72 curveto
stroke
0 0 0 edgecolor
newpath 47.31 87.71 moveto
50.09 97.94 lineto
54.29 88.21 lineto
closepath fill
1 setlinewidth
solid
0 0 0 edgecolor
newpath 47.31 87.71 moveto
50.09 97.94 lineto
54.29 88.21 lineto
closepath stroke
grestore
% Node0x3976280->Node0x395ffb0
gsave
1 setlinewidth
0 0 0 edgecolor
newpath 73.24 171.94 moveto
68.77 163.45 63.25 153.01 58.24 143.51 curveto
stroke
0 0 0 edgecolor
newpath 61.22 141.65 moveto
53.45 134.44 lineto
55.03 144.92 lineto
closepath fill
1 setlinewidth
solid
0 0 0 edgecolor
newpath 61.22 141.65 moveto
53.45 134.44 lineto
55.03 144.92 lineto
closepath stroke
grestore
% Node0x3976280->Node0x39761a0
gsave
1 setlinewidth
0 0 0 edgecolor
newpath 84.67 171.92 moveto
86.7 153.1 88.16 122.14 80.25 97 curveto
77.05 86.84 71.31 76.83 65.34 68.23 curveto
stroke
0 0 0 edgecolor
newpath 68.13 66.12 moveto
59.37 60.16 lineto
62.5 70.28 lineto
closepath fill
1 setlinewidth
solid
0 0 0 edgecolor
newpath 68.13 66.12 moveto
59.37 60.16 lineto
62.5 70.28 lineto
closepath stroke
grestore
% Node0x3976340->Node0x39761a0
gsave
1 setlinewidth
0 0 0 edgecolor
newpath 121.79 245.87 moveto
123.83 214.17 124.33 145.18 96.25 97 curveto
89.96 86.22 81.09 75.93 72.45 67.29 curveto
stroke
0 0 0 edgecolor
newpath 74.63 64.53 moveto
64.98 60.14 lineto
69.79 69.59 lineto
closepath fill
1 setlinewidth
solid
0 0 0 edgecolor
newpath 74.63 64.53 moveto
64.98 60.14 lineto
69.79 69.59 lineto
closepath stroke
grestore
% Node0x3976340->Node0x3976280
gsave
1 setlinewidth
0 0 0 edgecolor
newpath 105.4 245.94 moveto
100.08 237.54 94.4 227.23 89.85 217.81 curveto
stroke
0 0 0 edgecolor
newpath 92.91 216.09 moveto
85.57 208.44 lineto
86.54 218.99 lineto
closepath fill
1 setlinewidth
solid
0 0 0 edgecolor
newpath 92.91 216.09 moveto
85.57 208.44 lineto
86.54 218.99 lineto
closepath stroke
grestore
% Node0x3976340->Node0x3976280
gsave
1 setlinewidth
0 0 0 edgecolor
newpath 117.08 245.94 moveto
113.47 237.37 108.12 226.79 102.61 217.22 curveto
stroke
0 0 0 edgecolor
newpath 105.48 215.21 moveto
97.33 208.44 lineto
99.49 218.81 lineto
closepath fill
1 setlinewidth
solid
0 0 0 edgecolor
newpath 105.48 215.21 moveto
97.33 208.44 lineto
99.49 218.81 lineto
closepath stroke
grestore
endpage
showpage
grestore
%%PageTrailer
%%EndPage: 1
%%Trailer
%%Pages: 1
%%BoundingBox: 36 36 191 401
end
restore
%%EOF
