%!PS-Adobe-3.0
%%Creator: graphviz version 2.36.0 (20140111.2315)
%%Title: CFG for 'f' function
%%Pages: (atend)
%%BoundingBox: (atend)
%%EndComments
save
%%BeginProlog
/DotDict 200 dict def
DotDict begin

/setupLatin1 {
mark
/EncodingVector 256 array def
 EncodingVector 0

ISOLatin1Encoding 0 255 getinterval putinterval
EncodingVector 45 /hyphen put

% Set up ISO Latin 1 character encoding
/starnetISO {
        dup dup findfont dup length dict begin
        { 1 index /FID ne { def }{ pop pop } ifelse
        } forall
        /Encoding EncodingVector def
        currentdict end definefont
} def
/Times-Roman starnetISO def
/Times-Italic starnetISO def
/Times-Bold starnetISO def
/Times-BoldItalic starnetISO def
/Helvetica starnetISO def
/Helvetica-Oblique starnetISO def
/Helvetica-Bold starnetISO def
/Helvetica-BoldOblique starnetISO def
/Courier starnetISO def
/Courier-Oblique starnetISO def
/Courier-Bold starnetISO def
/Courier-BoldOblique starnetISO def
cleartomark
} bind def

%%BeginResource: procset graphviz 0 0
/coord-font-family /Times-Roman def
/default-font-family /Times-Roman def
/coordfont coord-font-family findfont 8 scalefont def

/InvScaleFactor 1.0 def
/set_scale {
       dup 1 exch div /InvScaleFactor exch def
       scale
} bind def

% styles
/solid { [] 0 setdash } bind def
/dashed { [9 InvScaleFactor mul dup ] 0 setdash } bind def
/dotted { [1 InvScaleFactor mul 6 InvScaleFactor mul] 0 setdash } bind def
/invis {/fill {newpath} def /stroke {newpath} def /show {pop newpath} def} bind def
/bold { 2 setlinewidth } bind def
/filled { } bind def
/unfilled { } bind def
/rounded { } bind def
/diagonals { } bind def
/tapered { } bind def

% hooks for setting color 
/nodecolor { sethsbcolor } bind def
/edgecolor { sethsbcolor } bind def
/graphcolor { sethsbcolor } bind def
/nopcolor {pop pop pop} bind def

/beginpage {	% i j npages
	/npages exch def
	/j exch def
	/i exch def
	/str 10 string def
	npages 1 gt {
		gsave
			coordfont setfont
			0 0 moveto
			(\() show i str cvs show (,) show j str cvs show (\)) show
		grestore
	} if
} bind def

/set_font {
	findfont exch
	scalefont setfont
} def

% draw text fitted to its expected width
/alignedtext {			% width text
	/text exch def
	/width exch def
	gsave
		width 0 gt {
			[] 0 setdash
			text stringwidth pop width exch sub text length div 0 text ashow
		} if
	grestore
} def

/boxprim {				% xcorner ycorner xsize ysize
		4 2 roll
		moveto
		2 copy
		exch 0 rlineto
		0 exch rlineto
		pop neg 0 rlineto
		closepath
} bind def

/ellipse_path {
	/ry exch def
	/rx exch def
	/y exch def
	/x exch def
	matrix currentmatrix
	newpath
	x y translate
	rx ry scale
	0 0 1 0 360 arc
	setmatrix
} bind def

/endpage { showpage } bind def
/showpage { } def

/layercolorseq
	[	% layer color sequence - darkest to lightest
		[0 0 0]
		[.2 .8 .8]
		[.4 .8 .8]
		[.6 .8 .8]
		[.8 .8 .8]
	]
def

/layerlen layercolorseq length def

/setlayer {/maxlayer exch def /curlayer exch def
	layercolorseq curlayer 1 sub layerlen mod get
	aload pop sethsbcolor
	/nodecolor {nopcolor} def
	/edgecolor {nopcolor} def
	/graphcolor {nopcolor} def
} bind def

/onlayer { curlayer ne {invis} if } def

/onlayers {
	/myupper exch def
	/mylower exch def
	curlayer mylower lt
	curlayer myupper gt
	or
	{invis} if
} def

/curlayer 0 def

%%EndResource
%%EndProlog
%%BeginSetup
14 default-font-family set_font
1 setmiterlimit
% /arrowlength 10 def
% /arrowwidth 5 def

% make sure pdfmark is harmless for PS-interpreters other than Distiller
/pdfmark where {pop} {userdict /pdfmark /cleartomark load put} ifelse
% make '<<' and '>>' safe on PS Level 1 devices
/languagelevel where {pop languagelevel}{1} ifelse
2 lt {
    userdict (<<) cvn ([) cvn load put
    userdict (>>) cvn ([) cvn load put
} if

%%EndSetup
setupLatin1
%%Page: 1 1
%%PageBoundingBox: 36 36 419 463
%%PageOrientation: Portrait
0 0 1 beginpage
gsave
36 36 383 427 boxprim clip newpath
1 1 set_scale 0 rotate 40 40 translate
0 0 0 graphcolor
14 /Times-Roman set_font
133.5 7.8 moveto 108 (CFG for 'f' function) alignedtext
% Node0x1e3c560
gsave
1 setlinewidth
0 0 0 nodecolor
newpath 89.5 282 moveto
89.5 418 lineto
278.5 418 lineto
278.5 282 lineto
closepath stroke
0 0 0 nodecolor
14 /Times-Roman set_font
97.5 402.8 moveto 23 (%0:) alignedtext
0 0 0 nodecolor
14 /Times-Roman set_font
97.5 387.8 moveto 137 ( %1 = alloca i32, align 4) alignedtext
0 0 0 nodecolor
14 /Times-Roman set_font
97.5 372.8 moveto 137 ( %2 = alloca i32, align 4) alignedtext
0 0 0 nodecolor
14 /Times-Roman set_font
97.5 357.8 moveto 173 ( store i32 %n, i32* %2, align 4) alignedtext
0 0 0 nodecolor
14 /Times-Roman set_font
97.5 342.8 moveto 157 ( %3 = load i32* %2, align 4) alignedtext
0 0 0 nodecolor
14 /Times-Roman set_font
97.5 327.8 moveto 151 ( %4 = icmp sgt i32 %3, 20) alignedtext
0 0 0 nodecolor
14 /Times-Roman set_font
97.5 312.8 moveto 165 ( br i1 %4, label %5, label %8) alignedtext
1 setlinewidth
0 0 0 nodecolor
newpath 89.5 305 moveto
278.5 305 lineto
stroke
0 0 0 nodecolor
14 /Times-Roman set_font
132.5 289.8 moveto 9 (T) alignedtext
1 setlinewidth
0 0 0 nodecolor
newpath 184.5 282 moveto
184.5 305 lineto
stroke
0 0 0 nodecolor
14 /Times-Roman set_font
227.5 289.8 moveto 8 (F) alignedtext
grestore
% Node0x1e3c5c0
gsave
1 setlinewidth
0 0 0 nodecolor
newpath -.5 137.5 moveto
-.5 236.5 lineto
172.5 236.5 lineto
172.5 137.5 lineto
closepath stroke
0 0 0 nodecolor
14 /Times-Roman set_font
7.5 221.3 moveto 23 (%5:) alignedtext
0 0 0 nodecolor
14 /Times-Roman set_font
7.5 190.3 moveto 157 ( %6 = load i32* %2, align 4) alignedtext
0 0 0 nodecolor
14 /Times-Roman set_font
7.5 175.3 moveto 151 ( %7 = call i32 @g\(i32 %6\)) alignedtext
0 0 0 nodecolor
14 /Times-Roman set_font
7.5 160.3 moveto 128 ( store i32 %7, i32* %1) alignedtext
0 0 0 nodecolor
14 /Times-Roman set_font
7.5 145.3 moveto 75 ( br label %12) alignedtext
grestore
% Node0x1e3c560->Node0x1e3c5c0
gsave
1 setlinewidth
0 0 0 edgecolor
newpath 88 293 moveto
66.45 293 64.37 270.61 68.38 246.51 curveto
stroke
0 0 0 edgecolor
newpath 71.86 246.99 moveto
70.35 236.5 lineto
64.99 245.64 lineto
closepath fill
1 setlinewidth
solid
0 0 0 edgecolor
newpath 71.86 246.99 moveto
70.35 236.5 lineto
64.99 245.64 lineto
closepath stroke
grestore
% Node0x1e3c620
gsave
1 setlinewidth
0 0 0 nodecolor
newpath 190.5 130 moveto
190.5 244 lineto
375.5 244 lineto
375.5 130 lineto
closepath stroke
0 0 0 nodecolor
14 /Times-Roman set_font
198.5 228.8 moveto 23 (%8:) alignedtext
0 0 0 nodecolor
14 /Times-Roman set_font
198.5 197.8 moveto 157 ( %9 = load i32* %2, align 4) alignedtext
0 0 0 nodecolor
14 /Times-Roman set_font
198.5 182.8 moveto 164 ( %10 = load i32* %2, align 4) alignedtext
0 0 0 nodecolor
14 /Times-Roman set_font
198.5 167.8 moveto 169 ( %11 = mul nsw i32 %9, %10) alignedtext
0 0 0 nodecolor
14 /Times-Roman set_font
198.5 152.8 moveto 135 ( store i32 %11, i32* %1) alignedtext
0 0 0 nodecolor
14 /Times-Roman set_font
198.5 137.8 moveto 75 ( br label %12) alignedtext
grestore
% Node0x1e3c560->Node0x1e3c620
gsave
1 setlinewidth
0 0 0 edgecolor
newpath 280 293 moveto
299.21 293 303.12 275.23 301.07 254.31 curveto
stroke
0 0 0 edgecolor
newpath 304.51 253.62 moveto
299.68 244.19 lineto
297.57 254.57 lineto
closepath fill
1 setlinewidth
solid
0 0 0 edgecolor
newpath 304.51 253.62 moveto
299.68 244.19 lineto
297.57 254.57 lineto
closepath stroke
grestore
% Node0x1e3c680
gsave
1 setlinewidth
0 0 0 nodecolor
newpath 116.5 23.5 moveto
116.5 92.5 lineto
251.5 92.5 lineto
251.5 23.5 lineto
closepath stroke
0 0 0 nodecolor
14 /Times-Roman set_font
124.5 77.3 moveto 30 (%12:) alignedtext
0 0 0 nodecolor
14 /Times-Roman set_font
124.5 46.3 moveto 119 ( %13 = load i32* %1) alignedtext
0 0 0 nodecolor
14 /Times-Roman set_font
124.5 31.3 moveto 69 ( ret i32 %13) alignedtext
grestore
% Node0x1e3c5c0->Node0x1e3c680
gsave
1 setlinewidth
0 0 0 edgecolor
newpath 123.61 137.26 moveto
132.82 125.33 142.59 112.66 151.54 101.07 curveto
stroke
0 0 0 edgecolor
newpath 154.54 102.9 moveto
157.88 92.85 lineto
149 98.62 lineto
closepath fill
1 setlinewidth
solid
0 0 0 edgecolor
newpath 154.54 102.9 moveto
157.88 92.85 lineto
149 98.62 lineto
closepath stroke
grestore
% Node0x1e3c620->Node0x1e3c680
gsave
1 setlinewidth
0 0 0 edgecolor
newpath 239.29 129.93 moveto
231.6 120.06 223.72 109.95 216.4 100.57 curveto
stroke
0 0 0 edgecolor
newpath 219.05 98.27 moveto
210.14 92.53 lineto
213.53 102.57 lineto
closepath fill
1 setlinewidth
solid
0 0 0 edgecolor
newpath 219.05 98.27 moveto
210.14 92.53 lineto
213.53 102.57 lineto
closepath stroke
grestore
endpage
showpage
grestore
%%PageTrailer
%%EndPage: 1
%%Trailer
%%Pages: 1
%%BoundingBox: 36 36 419 463
end
restore
%%EOF
